subtask,duration,touch,hear,speak,look
Operator towards,1.9487500000000004,1,0,0,1
Radio,1.976410256410251,1,1,0,1
AM/FM,2.5343835616438355,1,1,0,1
Tune Dial,7.531794871794867,1,1,0,1
Operator away,4.031999999999994,1,0,0,1
