subtask,duration,touch,hear,speak,look
Operator begins,1.6635820895522393,1,0,0,1
TEL,2.363137254901966,1,0,0,1
Operator turns Menu Dial,5.402042652329749,1,1,0,1
Operator presses Menu Dial,1.649578246753247,1,0,0,1
Operator turns Menu Dial,5.402042652329749,1,1,0,1
Operator presses Menu Dial,1.649578246753247,1,0,0,1
Operator moves away,2.8758823529411757,1,0,0,1
