subtask,duration,touch,hear,speak,look
Operator presses voice button on steering wheel,1.6971196296296402,1,1,0,0
System: *tone* "Please say a command." *tone*_latency,1.0961566666666813,0,1,0,1
System: *tone* "Please say a command." *tone*,1.5744900000000073,0,1,0,1
Operator: "Navigation cancel route."_latency,1.9158770967742076,0,1,0,1
Operator: "Navigation cancel route.",1.5451512903225935,0,0,1,1
System: *2 tones* Prompt to cancel_latency,1.1993233333333377,0,1,0,1
System: *2 tones* Prompt to cancel,1.3064900000000017,0,1,0,1
Operator: "Yes."_latency,2.166826734693891,0,1,0,1
Operator: "Yes.",0.37509204081633835,0,0,1,1
System: *tone* "Yes. Cancelling route." *tone*_latency,1.086467272727286,0,1,0,1
System: *tone* "Yes. Cancelling route." *tone*,0.22169454545455428,0,1,0,1
